{
    "type": "application",
    "source-directories": [
        "src",
        ".elm-spa/defaults",
        ".elm-spa/generated"
    ],
    "elm-version": "0.19.1",
    "dependencies": {
        "direct": {
            "dillonkearns/elm-graphql": "5.0.5",
            "elm/browser": "1.0.2",
            "elm/core": "1.0.5",
            "elm/html": "1.0.0",
            "elm/json": "1.1.3",
            "elm/url": "1.0.0",
            "krisajenkins/remotedata": "6.0.1",
            "mdgriffith/elm-ui": "1.1.8",
            "ryannhg/elm-spa": "6.0.0"
        },
        "indirect": {
            "elm/bytes": "1.0.8",
            "elm/file": "1.0.5",
            "elm/http": "2.0.0",
            "elm/regex": "1.0.0",
            "elm/time": "1.0.0",
            "elm/virtual-dom": "1.0.2",
            "elm-community/list-extra": "8.3.1",
            "lukewestby/elm-string-interpolate": "1.0.4"
        }
    },
    "test-dependencies": {
        "direct": {},
        "indirect": {}
    }
}
